Lab5/simulation/qsim/g03_lab5.msim.vcd
$comment
	File created using the following command:
		vcd file g03_lab5.msim.vcd -direction
$end
$date
	Mon Nov 27 16:32:07 2017
$end
$version
	ModelSim Version 10.1d
$end
$timescale
	1ps
$end
$scope module g03_lab5_vlg_vec_tst $end
$var reg 1 ! clk $end
$var reg 1 " legal_play $end
$var reg 1 # reset $end
$var reg 1 $ turn $end
$var wire 1 % done $end
$var wire 1 & request_deal $end
$var wire 1 ' state [1] $end
$var wire 1 ( state [0] $end
$var wire 1 ) sampler $end
$scope module i1 $end
$var wire 1 * gnd $end
$var wire 1 + vcc $end
$var wire 1 , unknown $end
$var tri1 1 - devclrn $end
$var tri1 1 . devpor $end
$var tri1 1 / devoe $end
$var wire 1 0 clk~combout $end
$var wire 1 1 clk~clkctrl_outclk $end
$var wire 1 2 legal_play~combout $end
$var wire 1 3 turn~combout $end
$var wire 1 4 inst|state[0]~1_combout $end
$var wire 1 5 reset~combout $end
$var wire 1 6 reset~clkctrl_outclk $end
$var wire 1 7 inst|state[1]~0_combout $end
$var wire 1 8 inst|Mux1~0_combout $end
$var wire 1 9 inst|request_deal~0_combout $end
$var wire 1 : inst|request_deal~regout $end
$var wire 1 ; inst|done~regout $end
$var wire 1 < inst|state [1] $end
$var wire 1 = inst|state [0] $end
$upscope $end
$upscope $end
$enddefinitions $end
#0
$dumpvars
0!
0"
0#
0$
0%
0&
0(
0'
x)
0*
1+
x,
1-
1.
1/
00
01
02
03
04
05
06
07
08
19
0:
0;
0=
0<
$end
#15000
1!
10
11
0)
#30000
0!
00
01
1)
#45000
1!
10
11
0)
#60000
0!
00
01
1)
#70000
1$
13
0)
14
#75000
1!
10
11
1)
1=
18
17
04
1(
#90000
0!
00
01
0)
#100000
1"
12
1)
07
14
#105000
1!
10
11
0)
1:
1&
#110000
0$
03
1)
#120000
0!
00
01
0)
#135000
1!
10
11
1)
#150000
0!
00
01
0)
#165000
1!
10
11
1)
#180000
0!
00
01
0)
#195000
1!
10
11
1)
#200000
0"
02
0)
17
04
#210000
0!
00
01
1)
#225000
1!
10
11
0)
1<
0=
08
07
1'
0(
#240000
0!
00
01
1)
#255000
1!
10
11
0)
1;
0:
0<
1%
0&
0'
#270000
0!
00
01
1)
#280000
1$
13
0)
14
#285000
1!
10
11
1)
0;
1=
18
17
04
0%
1(
#300000
0!
00
01
0)
#315000
1!
10
11
1)
1:
1<
0=
08
1&
1'
0(
#320000
0$
03
0)
07
#330000
0!
00
01
1)
#345000
1!
10
11
0)
1;
0:
0<
1%
0&
0'
#360000
0!
00
01
1)
#375000
1!
10
11
0)
0;
0%
#390000
0!
00
01
1)
#405000
1!
10
11
0)
#420000
0!
00
01
1)
#435000
1!
10
11
0)
#450000
0!
00
01
1)
#465000
1!
10
11
0)
#480000
0!
00
01
1)
#495000
1!
10
11
0)
#510000
0!
00
01
1)
#525000
1!
10
11
0)
#540000
0!
00
01
1)
#555000
1!
10
11
0)
#570000
0!
00
01
1)
#585000
1!
10
11
0)
#600000
0!
00
01
1)
#615000
1!
10
11
0)
#630000
0!
00
01
1)
#645000
1!
10
11
0)
#660000
0!
00
01
1)
#675000
1!
10
11
0)
#690000
0!
00
01
1)
#705000
1!
10
11
0)
#720000
0!
00
01
1)
#735000
1!
10
11
0)
#750000
0!
00
01
1)
#765000
1!
10
11
0)
#780000
0!
00
01
1)
#795000
1!
10
11
0)
#810000
0!
00
01
1)
#825000
1!
10
11
0)
#840000
0!
00
01
1)
#855000
1!
10
11
0)
#870000
0!
00
01
1)
#885000
1!
10
11
0)
#900000
0!
00
01
1)
#915000
1!
10
11
0)
#930000
0!
00
01
1)
#945000
1!
10
11
0)
#960000
0!
00
01
1)
#975000
1!
10
11
0)
#990000
0!
00
01
1)
