Lab5/simulation/qsim/g03_lab5.msim.vcd
$comment
	File created using the following command:
		vcd file g03_lab5.msim.vcd -direction
$end
$date
	Thu Nov 30 20:21:12 2017
$end
$version
	ModelSim Version 10.1d
$end
$timescale
	1ps
$end
$scope module g03_mod10_test_vlg_vec_tst $end
$var reg 6 ! card_value [5:0] $end
$var wire 1 " floor10 [5] $end
$var wire 1 # floor10 [4] $end
$var wire 1 $ floor10 [3] $end
$var wire 1 % floor10 [2] $end
$var wire 1 & floor10 [1] $end
$var wire 1 ' floor10 [0] $end
$var wire 1 ( mod10 [5] $end
$var wire 1 ) mod10 [4] $end
$var wire 1 * mod10 [3] $end
$var wire 1 + mod10 [2] $end
$var wire 1 , mod10 [1] $end
$var wire 1 - mod10 [0] $end
$var wire 1 . sampler $end
$scope module i1 $end
$var wire 1 / gnd $end
$var wire 1 0 vcc $end
$var wire 1 1 unknown $end
$var tri1 1 2 devclrn $end
$var tri1 1 3 devpor $end
$var tri1 1 4 devoe $end
$var wire 1 5 inst|Div0|auto_generated|divider|divider|add_sub_3_result_int[1]~0_combout $end
$var wire 1 6 inst|Div0|auto_generated|divider|divider|add_sub_3_result_int[2]~2_combout $end
$var wire 1 7 inst|Div0|auto_generated|divider|divider|add_sub_4_result_int[1]~0_combout $end
$var wire 1 8 inst|Div0|auto_generated|divider|divider|StageOut[18]~16_combout $end
$var wire 1 9 inst|Div0|auto_generated|divider|divider|StageOut[17]~19_combout $end
$var wire 1 : inst|Div0|auto_generated|divider|divider|StageOut[16]~21_combout $end
$var wire 1 ; inst|Div0|auto_generated|divider|divider|StageOut[15]~23_combout $end
$var wire 1 < inst|Div0|auto_generated|divider|divider|StageOut[21]~27_combout $end
$var wire 1 = inst|Div0|auto_generated|divider|divider|StageOut[20]~29_combout $end
$var wire 1 > inst|Mod0|auto_generated|divider|divider|StageOut[21]~24_combout $end
$var wire 1 ? inst|Mod0|auto_generated|divider|divider|StageOut[20]~26_combout $end
$var wire 1 @ inst|Mod0|auto_generated|divider|divider|StageOut[19]~29_combout $end
$var wire 1 A inst|Mod0|auto_generated|divider|divider|StageOut[18]~30_combout $end
$var wire 1 B inst|Mod0|auto_generated|divider|divider|StageOut[24]~37_combout $end
$var wire 1 C inst|Div0|auto_generated|divider|divider|StageOut[23]~30_combout $end
$var wire 1 D inst|Div0|auto_generated|divider|divider|StageOut[22]~31_combout $end
$var wire 1 E inst|Div0|auto_generated|divider|divider|add_sub_3_result_int[1]~1 $end
$var wire 1 F inst|Div0|auto_generated|divider|divider|add_sub_3_result_int[2]~3 $end
$var wire 1 G inst|Div0|auto_generated|divider|divider|add_sub_3_result_int[3]~5 $end
$var wire 1 H inst|Div0|auto_generated|divider|divider|add_sub_3_result_int[4]~6_combout $end
$var wire 1 I inst|Div0|auto_generated|divider|divider|add_sub_3_result_int[3]~4_combout $end
$var wire 1 J inst|Div0|auto_generated|divider|divider|StageOut[18]~17_combout $end
$var wire 1 K inst|Div0|auto_generated|divider|divider|StageOut[17]~18_combout $end
$var wire 1 L inst|Div0|auto_generated|divider|divider|StageOut[16]~20_combout $end
$var wire 1 M inst|Div0|auto_generated|divider|divider|StageOut[15]~22_combout $end
$var wire 1 N inst|Div0|auto_generated|divider|divider|add_sub_4_result_int[1]~1 $end
$var wire 1 O inst|Div0|auto_generated|divider|divider|add_sub_4_result_int[2]~3 $end
$var wire 1 P inst|Div0|auto_generated|divider|divider|add_sub_4_result_int[3]~5 $end
$var wire 1 Q inst|Div0|auto_generated|divider|divider|add_sub_4_result_int[4]~7_cout $end
$var wire 1 R inst|Div0|auto_generated|divider|divider|add_sub_4_result_int[5]~8_combout $end
$var wire 1 S inst|Div0|auto_generated|divider|divider|add_sub_4_result_int[3]~4_combout $end
$var wire 1 T inst|Div0|auto_generated|divider|divider|StageOut[23]~24_combout $end
$var wire 1 U inst|Div0|auto_generated|divider|divider|add_sub_4_result_int[2]~2_combout $end
$var wire 1 V inst|Div0|auto_generated|divider|divider|StageOut[22]~25_combout $end
$var wire 1 W inst|Div0|auto_generated|divider|divider|StageOut[21]~26_combout $end
$var wire 1 X inst|Div0|auto_generated|divider|divider|StageOut[20]~28_combout $end
$var wire 1 Y inst|Div0|auto_generated|divider|divider|add_sub_5_result_int[1]~1_cout $end
$var wire 1 Z inst|Div0|auto_generated|divider|divider|add_sub_5_result_int[2]~3_cout $end
$var wire 1 [ inst|Div0|auto_generated|divider|divider|add_sub_5_result_int[3]~5_cout $end
$var wire 1 \ inst|Div0|auto_generated|divider|divider|add_sub_5_result_int[4]~7_cout $end
$var wire 1 ] inst|Div0|auto_generated|divider|divider|add_sub_5_result_int[5]~8_combout $end
$var wire 1 ^ inst|Mod0|auto_generated|divider|divider|add_sub_3_result_int[1]~1 $end
$var wire 1 _ inst|Mod0|auto_generated|divider|divider|add_sub_3_result_int[2]~3 $end
$var wire 1 ` inst|Mod0|auto_generated|divider|divider|add_sub_3_result_int[3]~4_combout $end
$var wire 1 a inst|Mod0|auto_generated|divider|divider|StageOut[21]~25_combout $end
$var wire 1 b inst|Mod0|auto_generated|divider|divider|add_sub_3_result_int[2]~2_combout $end
$var wire 1 c inst|Mod0|auto_generated|divider|divider|StageOut[20]~27_combout $end
$var wire 1 d inst|Mod0|auto_generated|divider|divider|add_sub_3_result_int[3]~5 $end
$var wire 1 e inst|Mod0|auto_generated|divider|divider|add_sub_3_result_int[4]~6_combout $end
$var wire 1 f inst|Mod0|auto_generated|divider|divider|StageOut[19]~28_combout $end
$var wire 1 g inst|Mod0|auto_generated|divider|divider|StageOut[18]~31_combout $end
$var wire 1 h inst|Mod0|auto_generated|divider|divider|add_sub_4_result_int[1]~1 $end
$var wire 1 i inst|Mod0|auto_generated|divider|divider|add_sub_4_result_int[2]~3 $end
$var wire 1 j inst|Mod0|auto_generated|divider|divider|add_sub_4_result_int[3]~5 $end
$var wire 1 k inst|Mod0|auto_generated|divider|divider|add_sub_4_result_int[4]~7 $end
$var wire 1 l inst|Mod0|auto_generated|divider|divider|add_sub_4_result_int[5]~8_combout $end
$var wire 1 m inst|Mod0|auto_generated|divider|divider|add_sub_4_result_int[4]~6_combout $end
$var wire 1 n inst|Mod0|auto_generated|divider|divider|StageOut[28]~32_combout $end
$var wire 1 o inst|Mod0|auto_generated|divider|divider|add_sub_4_result_int[3]~4_combout $end
$var wire 1 p inst|Mod0|auto_generated|divider|divider|StageOut[27]~33_combout $end
$var wire 1 q inst|Mod0|auto_generated|divider|divider|add_sub_4_result_int[2]~2_combout $end
$var wire 1 r inst|Mod0|auto_generated|divider|divider|StageOut[26]~34_combout $end
$var wire 1 s inst|Mod0|auto_generated|divider|divider|StageOut[25]~35_combout $end
$var wire 1 t inst|Mod0|auto_generated|divider|divider|StageOut[24]~38_combout $end
$var wire 1 u inst|Mod0|auto_generated|divider|divider|add_sub_5_result_int[1]~1 $end
$var wire 1 v inst|Mod0|auto_generated|divider|divider|add_sub_5_result_int[2]~3 $end
$var wire 1 w inst|Mod0|auto_generated|divider|divider|add_sub_5_result_int[3]~5 $end
$var wire 1 x inst|Mod0|auto_generated|divider|divider|add_sub_5_result_int[4]~7 $end
$var wire 1 y inst|Mod0|auto_generated|divider|divider|add_sub_5_result_int[5]~8_combout $end
$var wire 1 z inst|Mod0|auto_generated|divider|divider|StageOut[28]~44_combout $end
$var wire 1 { inst|Mod0|auto_generated|divider|divider|add_sub_5_result_int[5]~9 $end
$var wire 1 | inst|Mod0|auto_generated|divider|divider|add_sub_5_result_int[6]~10_combout $end
$var wire 1 } inst|Mod0|auto_generated|divider|divider|StageOut[35]~39_combout $end
$var wire 1 ~ inst|Mod0|auto_generated|divider|divider|add_sub_5_result_int[4]~6_combout $end
$var wire 1 !! inst|Mod0|auto_generated|divider|divider|StageOut[27]~45_combout $end
$var wire 1 "! inst|Mod0|auto_generated|divider|divider|StageOut[34]~40_combout $end
$var wire 1 #! inst|Mod0|auto_generated|divider|divider|add_sub_3_result_int[1]~0_combout $end
$var wire 1 $! inst|Mod0|auto_generated|divider|divider|StageOut[26]~46_combout $end
$var wire 1 %! inst|Mod0|auto_generated|divider|divider|add_sub_5_result_int[3]~4_combout $end
$var wire 1 &! inst|Mod0|auto_generated|divider|divider|StageOut[33]~41_combout $end
$var wire 1 '! inst|Mod0|auto_generated|divider|divider|add_sub_5_result_int[2]~2_combout $end
$var wire 1 (! inst|Mod0|auto_generated|divider|divider|add_sub_4_result_int[1]~0_combout $end
$var wire 1 )! inst|Mod0|auto_generated|divider|divider|StageOut[25]~36_combout $end
$var wire 1 *! inst|Mod0|auto_generated|divider|divider|StageOut[32]~42_combout $end
$var wire 1 +! inst|Mod0|auto_generated|divider|divider|add_sub_5_result_int[1]~0_combout $end
$var wire 1 ,! inst|Mod0|auto_generated|divider|divider|StageOut[31]~43_combout $end
$var wire 1 -! card_value~combout [5] $end
$var wire 1 .! card_value~combout [4] $end
$var wire 1 /! card_value~combout [3] $end
$var wire 1 0! card_value~combout [2] $end
$var wire 1 1! card_value~combout [1] $end
$var wire 1 2! card_value~combout [0] $end
$upscope $end
$upscope $end
$enddefinitions $end
#0
$dumpvars
b0 !
0'
0&
0%
0$
0#
0"
0-
0,
0+
0*
0)
0(
x.
0/
10
x1
12
13
14
15
16
17
08
09
0:
0;
0<
0=
0>
0?
0@
0A
0B
0C
0D
0E
1F
0G
1H
0I
0J
0K
0L
0M
0N
1O
0P
1Q
1R
0S
0T
1U
0V
0W
0X
0Y
1Z
0[
1\
1]
0^
1_
0`
0a
1b
0c
0d
1e
0f
0g
0h
1i
0j
1k
1l
1m
0n
0o
0p
1q
0r
0s
0t
0u
1v
0w
1x
1y
0z
0{
1|
0}
1~
0!!
0"!
1#!
0$!
0%!
0&!
1'!
1(!
0)!
0*!
1+!
0,!
02!
01!
00!
0/!
0.!
0-!
$end
#20000
b10 !
11!
0.
1,!
1X
1B
1Y
1u
0+!
1,
0Z
0v
0'!
1%!
#40000
b110 !
b100 !
01!
10!
1.
0,!
0X
0B
1s
1W
1M
1A
0Y
0u
1+!
1*!
1'!
1N
07
1h
0(!
0,
0'!
0O
0U
0i
0q
1+
1S
1o
#60000
b110 !
11!
0.
1,!
1X
1B
1Y
1u
0+!
1,
1'!
#80000
b1110 !
b1010 !
b1000 !
01!
00!
1/!
1.
0,!
0X
0B
0s
0W
0M
0A
1$!
1f
1^
0#!
1L
1D
1E
05
0Y
0u
1+!
0*!
0'!
0N
17
0h
1(!
1&!
1w
0%!
1q
0_
0b
1U
1[
0F
06
0,
1Z
1v
1'!
0U
0q
0x
0~
1`
0\
1I
0+
1*
0[
0w
1%!
1{
0y
0]
1\
1x
1~
0|
1'
1]
0{
1y
1"!
1,!
1*!
1|
1}
1)
1,
1+
0'
0,!
0*!
0"!
0}
1(
0,
0+
0)
0(
#100000
b1010 !
11!
0.
1,!
1X
1B
1Y
1u
0+!
1,
0Z
0v
0'!
1[
1w
0%!
0\
0x
0~
0]
1{
0y
0|
1'
0,!
0&!
0,
0*
#120000
b1110 !
b1100 !
01!
10!
1.
0X
0B
1s
1W
1M
1A
0Y
0u
1+!
1'!
1N
07
1h
0(!
0'!
1,!
1*!
1U
1q
0*!
1,
1+
0+
#140000
b1110 !
11!
0.
1X
1B
1Y
1u
0+!
1'!
0,!
1*!
0,
1+
#160000
b11110 !
b10110 !
b10010 !
b10000 !
01!
00!
0/!
1.!
1.
0X
0B
0s
0W
0M
0A
0$!
0f
0^
1#!
0L
0D
0E
15
1!!
1b
1K
1C
1?
16
0Y
0u
1+!
0'!
0N
17
0h
1(!
0w
1%!
0q
0b
0U
0[
06
1~
1P
0S
1j
0o
1Z
1v
1'!
1,!
0*!
1O
1U
1i
1q
0~
1&!
1"!
0Q
0k
0m
0%!
1*!
0P
1S
0j
1o
0"!
0R
0l
1,
0+
1*
1)
0&!
1Q
1T
1k
1m
1p
1V
0C
1<
1)!
0!!
1r
1+
0)
1&
1R
1l
1n
0Z
0v
0'!
1%!
0*
0V
0T
1C
0<
0)!
1!!
0r
0p
0n
1y
1[
1w
0%!
0*!
1&!
0&
0[
1Z
1v
1'!
1~
0&!
0w
1%!
1}
0y
0+
1*
0%!
1*!
1"!
0~
1&!
0}
0*
1(
0&!
0"!
1+
1)
1*
0(
0*
0)
#180000
b10010 !
11!
0.
1X
1B
1Y
1u
0+!
0Z
0v
0'!
0,!
1%!
0*!
0,
1&!
0+
1*
#200000
b10110 !
b10100 !
01!
10!
1.
0X
0B
1s
1W
1M
1A
0Y
0u
1+!
1'!
1N
07
1h
0(!
0'!
1,!
1*!
0O
0U
0i
0q
0*!
1P
0S
1j
0o
1,
1+
0Q
0k
0m
0+
0R
0l
0W
0C
0!!
0s
1&
1Z
1\
1x
1~
1v
1'!
1]
0{
1y
1"!
0%!
1*!
1|
1}
0&!
1)
1+
0'
0,!
0*!
0"!
0}
1(
0*
0,
0+
0)
0(
#220000
b10110 !
11!
0.
1,!
1t
1=
1u
0+!
1Y
1,
0v
0'!
0Z
1%!
#240000
b11110 !
b11010 !
b11000 !
01!
00!
1/!
1.
0,!
0t
0=
0M
0A
1f
1^
0#!
1L
1E
05
0u
1+!
0Y
0N
17
0h
1(!
1q
1b
1U
16
0,
1v
1'!
1Z
0U
1<
0q
1)!
1r
1V
1*!
0V
0Z
0r
0v
0'!
1&!
0&!
1+
1*
0*
#260000
b11010 !
11!
0.
1,!
1t
1=
1u
0+!
1Y
1,
1'!
#280000
b11110 !
b11100 !
01!
10!
1.
0,!
0t
0=
1M
1A
0u
1+!
0Y
1N
07
1h
0(!
0,
0'!
1U
0<
1q
0)!
0*!
1V
1Z
1r
1v
1'!
1&!
0+
1*
#300000
b11110 !
11!
0.
1,!
1t
1=
1u
0+!
1Y
1,
0v
0'!
0Z
1w
0%!
1[
0x
0~
0\
1{
0y
0]
0|
1'
0,!
0&!
0,
0*
#320000
b111110 !
b101110 !
b100110 !
b100010 !
b100000 !
01!
00!
0/!
0.!
1-!
1.
0t
0=
0M
0A
0f
0^
1#!
0L
0E
15
0b
0K
0?
06
1d
0`
1G
0I
1>
18
0u
1+!
0Y
0N
17
0h
1(!
0q
1_
1b
0U
1F
16
0P
1S
0j
1o
0e
0H
1m
1v
1'!
1,!
1Z
1O
1U
1<
1i
1q
1)!
0r
0d
1`
1c
0V
0G
1I
19
1T
0m
1p
1@
0>
1:
08
1n
1%
0w
1*!
0[
1V
0Z
1r
0v
0'!
1e
1a
1H
1J
0n
1~
0i
0q
1k
1m
0O
0U
1Q
1y
1,
0~
1[
1w
0*!
0c
0a
0@
1>
0k
0m
0J
0:
09
18
0Q
1}
0y
1"!
1j
0o
0r
1l
1n
1P
0S
0V
1R
1+
0%
0"!
1~
0j
1o
1m
1i
1q
0l
0n
1O
1U
0P
1S
0R
0}
0p
0w
1%!
0)!
1z
1y
0T
0[
0<
0+
1(
1)
0&
1"!
0m
1p
1n
0o
1r
1)!
0z
1}
0S
1V
1T
1<
1x
1&!
1v
1'!
1\
1Z
0)
0(
1&
0n
0x
0~
0y
0p
1*!
0v
0'!
0T
0\
0Z
1]
1)
1(
1*
0}
0"!
1x
1~
1w
0%!
0*!
1\
0]
1[
1+
0'
0{
1y
1"!
0x
0~
0&!
1]
0\
0(
0)
0+
1'
1|
1}
1{
0y
0"!
0]
1)
0*
0'
0,!
1*!
1&!
0}
0|
1(
0)
1'
1,!
0*!
0&!
0,
1+
1*
0(
1,
0+
0*
#340000
b100010 !
11!
0.
1t
1=
1u
0+!
1Y
1'!
0,!
1*!
0,
1+
#360000
b100110 !
b100100 !
01!
10!
1.
0t
0=
1M
1A
0u
1+!
0Y
1N
07
1h
0(!
0'!
1,!
0O
0U
0<
0i
0q
0)!
0*!
1S
0V
1Z
1o
0r
1v
1'!
1,
1T
0[
1p
0w
1*!
0+
1+
#380000
b100110 !
11!
0.
1t
1=
1u
0+!
1Y
0v
0'!
0,!
0Z
1%!
0*!
0,
1&!
0+
1*
#400000
b101110 !
b101010 !
b101000 !
01!
00!
1/!
1.
0t
0=
0M
0A
1f
1^
0#!
1L
1E
05
0u
1+!
0Y
0N
17
0h
1(!
1q
0_
0b
1U
0F
06
1v
1'!
1,!
1Z
0U
1<
0q
1)!
1r
1d
0`
1V
1G
0I
1*!
0V
0Z
0r
0v
0'!
0e
0H
1,
0*!
0f
0>
0L
08
1+
1%
1i
1q
1k
1m
1O
1U
1Q
0+
0o
1r
1l
1n
0S
1V
1R
0p
1w
0%!
0)!
0r
0n
1y
0T
1[
0V
0<
0&
0&!
1v
1'!
0w
1%!
1}
0y
0[
1Z
0%!
1*!
1x
1~
1&!
0}
1\
0*
1(
0&!
0{
1y
1"!
1]
1+
1*
0(
1|
1}
0*
1)
0'
0,!
0*!
0"!
0}
1(
0,
0+
0)
0(
#420000
b101010 !
11!
0.
1,!
1X
1B
1Y
1u
0+!
1,
0Z
0v
0'!
1%!
#440000
b101110 !
b101100 !
01!
10!
1.
0,!
0X
0B
1s
1g
1W
1;
0Y
0u
1+!
1*!
1'!
1h
0(!
1N
07
0,
0'!
0i
0q
0O
0U
1+
1o
1S
#460000
b101110 !
11!
0.
1,!
1X
1B
1Y
1u
0+!
1,
1'!
#480000
b111110 !
b110110 !
b110010 !
b110000 !
01!
00!
0/!
1.!
1.
0,!
0X
0B
0s
0g
0W
0;
0^
1#!
0E
15
1b
16
0Y
0u
1+!
0*!
0'!
0h
1(!
0N
17
0b
1$!
1@
06
1D
1:
1!!
1c
1C
19
0,
1Z
1v
1'!
0!!
0c
1&!
1w
0%!
0C
09
1[
1"!
0x
0~
1j
0o
0\
1P
0S
0+
0[
0w
1%!
0"!
0j
1o
0P
1S
1{
0y
0k
0m
0]
0Q
1*
1)
1\
1x
1~
1k
1m
1Q
0|
0l
0R
0)
1'
1]
0{
1y
1"!
1l
1n
1R
1,!
1*!
1)!
0$!
1p
1T
0D
1<
1&
1|
1}
0)!
1$!
0p
0n
1{
0y
0T
1D
0<
0v
0'!
0%!
0x
0~
0\
0Z
1)
1,
1+
0'
0&
0,!
0*!
0"!
0}
1v
1'!
1w
1x
1~
0|
1\
1[
1Z
0]
1(
0w
1%!
1*!
0x
0~
0{
1y
1"!
1,!
0&!
1]
0\
0[
0,
0+
0)
0(
1'
1x
1~
1&!
1{
0y
0"!
1|
1}
0]
1\
1+
1)
1,
0*
0'
0{
1y
0|
0}
0,!
0*!
1]
1*
0)
1(
1'
1|
1}
1,!
1*!
1"!
0(
0,
0+
0'
0,!
0*!
0"!
0}
1(
1,
1+
1)
0,
0+
0)
0(
#500000
b110010 !
11!
0.
1,!
1X
1B
1Y
1u
0+!
1,
0Z
0v
0'!
1[
1w
0%!
0\
0x
0~
0]
1{
0y
0|
1'
0,!
0&!
0,
0*
#520000
b110110 !
b110100 !
01!
10!
1.
0X
0B
1s
1g
1W
1;
0Y
0u
1+!
1'!
1h
0(!
1N
07
0'!
1,!
1*!
1q
1U
0*!
1,
1+
0+
#540000
b110110 !
11!
0.
1X
1B
1Y
1u
0+!
1'!
0,!
1*!
0,
1+
#560000
b111110 !
b111010 !
b111000 !
01!
00!
1/!
1.
0X
0B
0s
0g
0W
0;
1^
0#!
1E
05
0Y
0u
1+!
0'!
0h
1(!
0N
17
1b
0$!
0@
16
0D
0:
1Z
1v
1'!
1,!
0*!
1i
1O
1!!
1c
0w
1%!
1C
19
0[
0%!
1*!
1&!
1,
0+
0&!
1+
1*
0*
#580000
b111010 !
11!
0.
1X
1B
1Y
1u
0+!
0Z
0v
0'!
0,!
1%!
0*!
0,
1&!
0+
1*
#600000
b111110 !
b111100 !
01!
10!
1.
0X
0B
1s
1g
1W
1;
0Y
0u
1+!
1'!
1h
0(!
1N
07
0'!
1,!
1*!
0i
0q
0O
0U
0*!
1j
0o
1P
0S
1,
1+
0k
0m
0Q
0+
0l
0R
0!!
0s
0W
0C
1&
1x
1~
1v
1'!
1Z
1\
0{
1y
1"!
0%!
1*!
1]
1|
1}
0&!
1)
1+
0'
0,!
0*!
0"!
0}
1(
0*
0,
0+
0)
0(
#620000
b111110 !
11!
0.
1,!
1t
1=
1u
0+!
1Y
1,
0v
0'!
0Z
1%!
#640000
b11110 !
b1110 !
b110 !
b10 !
b0 !
01!
00!
0/!
0.!
0-!
1.
0,!
0t
0=
0g
0;
0^
1#!
0E
15
0b
06
0d
1`
0G
1I
0u
1+!
0Y
0h
1(!
0N
17
1_
1b
1@
1F
16
1:
0c
09
1e
1a
1H
1J
0,
1v
1'!
1Z
1)!
1<
0`
0I
0j
1o
0P
1S
0a
0@
1m
0J
0:
0%
0%!
1*!
0v
0'!
0Z
1k
1p
1Q
1T
1i
1q
1n
1O
1U
1%!
1l
1"!
0x
0~
1R
0\
0o
1r
1}
1{
0y
0S
1V
1+
1&!
0)!
0r
0p
0n
1y
0V
0T
0<
0]
1w
0%!
0|
1[
1)
1(
0&
0*!
1v
1'!
0&!
0w
1%!
0"!
0y
0[
1Z
1,!
1*
1'
0%!
1*!
1x
1~
1&!
0}
1\
0+
0*
0)
1,
0&!
0{
1y
1"!
1]
1+
1*
0(
1|
1}
0*
1)
0'
0,!
0*!
0"!
0}
1(
0,
0+
0)
0(
#660000
b10 !
11!
0.
1,!
1X
1B
1Y
1u
0+!
1,
0Z
0v
0'!
1%!
#680000
b110 !
b100 !
01!
10!
1.
0,!
0X
0B
1s
1W
1M
1A
0Y
0u
1+!
1*!
1'!
1N
07
1h
0(!
0,
0'!
0O
0U
0i
0q
1+
1S
1o
#700000
b110 !
11!
0.
1,!
1X
1B
1Y
1u
0+!
1,
1'!
#720000
b1110 !
b1010 !
b1000 !
01!
00!
1/!
1.
0,!
0X
0B
0s
0W
0M
0A
1$!
1f
1^
0#!
1L
1D
1E
05
0Y
0u
1+!
0*!
0'!
0N
17
0h
1(!
1&!
1w
0%!
1q
0_
0b
1U
1[
0F
06
0,
1Z
1v
1'!
0U
0q
0x
0~
1`
0\
1I
0+
1*
0[
0w
1%!
1{
0y
0]
1\
1x
1~
0|
1'
1]
0{
1y
1"!
1,!
1*!
1|
1}
1)
1,
1+
0'
0,!
0*!
0"!
0}
1(
0,
0+
0)
0(
#740000
b1010 !
11!
0.
1,!
1X
1B
1Y
1u
0+!
1,
0Z
0v
0'!
1[
1w
0%!
0\
0x
0~
0]
1{
0y
0|
1'
0,!
0&!
0,
0*
#760000
b1110 !
b1100 !
01!
10!
1.
0X
0B
1s
1W
1M
1A
0Y
0u
1+!
1'!
1N
07
1h
0(!
0'!
1,!
1*!
1U
1q
0*!
1,
1+
0+
#780000
b1110 !
11!
0.
1X
1B
1Y
1u
0+!
1'!
0,!
1*!
0,
1+
#800000
b11110 !
b10110 !
b10010 !
b10000 !
01!
00!
0/!
1.!
1.
0X
0B
0s
0W
0M
0A
0$!
0f
0^
1#!
0L
0D
0E
15
1!!
1b
1K
1C
1?
16
0Y
0u
1+!
0'!
0N
17
0h
1(!
0w
1%!
0q
0b
0U
0[
06
1~
1P
0S
1j
0o
1Z
1v
1'!
1,!
0*!
1O
1U
1i
1q
0~
1&!
1"!
0Q
0k
0m
0%!
1*!
0P
1S
0j
1o
0"!
0R
0l
1,
0+
1*
1)
0&!
1Q
1T
1k
1m
1p
1V
0C
1<
1)!
0!!
1r
1+
0)
1&
1R
1l
1n
0Z
0v
0'!
1%!
0*
0V
0T
1C
0<
0)!
1!!
0r
0p
0n
1y
1[
1w
0%!
0*!
1&!
0&
0[
1Z
1v
1'!
1~
0&!
0w
1%!
1}
0y
0+
1*
0%!
1*!
1"!
0~
1&!
0}
0*
1(
0&!
0"!
1+
1)
1*
0(
0*
0)
#820000
b10010 !
11!
0.
1X
1B
1Y
1u
0+!
0Z
0v
0'!
0,!
1%!
0*!
0,
1&!
0+
1*
#840000
b10110 !
b10100 !
01!
10!
1.
0X
0B
1s
1W
1M
1A
0Y
0u
1+!
1'!
1N
07
1h
0(!
0'!
1,!
1*!
0O
0U
0i
0q
0*!
1P
0S
1j
0o
1,
1+
0Q
0k
0m
0+
0R
0l
0W
0C
0!!
0s
1&
1Z
1\
1x
1~
1v
1'!
1]
0{
1y
1"!
0%!
1*!
1|
1}
0&!
1)
1+
0'
0,!
0*!
0"!
0}
1(
0*
0,
0+
0)
0(
#860000
b10110 !
11!
0.
1,!
1t
1=
1u
0+!
1Y
1,
0v
0'!
0Z
1%!
#880000
b11110 !
b11010 !
b11000 !
01!
00!
1/!
1.
0,!
0t
0=
0M
0A
1f
1^
0#!
1L
1E
05
0u
1+!
0Y
0N
17
0h
1(!
1q
1b
1U
16
0,
1v
1'!
1Z
0U
1<
0q
1)!
1r
1V
1*!
0V
0Z
0r
0v
0'!
1&!
0&!
1+
1*
0*
#900000
b11010 !
11!
0.
1,!
1t
1=
1u
0+!
1Y
1,
1'!
#920000
b11110 !
b11100 !
01!
10!
1.
0,!
0t
0=
1M
1A
0u
1+!
0Y
1N
07
1h
0(!
0,
0'!
1U
0<
1q
0)!
0*!
1V
1Z
1r
1v
1'!
1&!
0+
1*
#940000
b11110 !
11!
0.
1,!
1t
1=
1u
0+!
1Y
1,
0v
0'!
0Z
1w
0%!
1[
0x
0~
0\
1{
0y
0]
0|
1'
0,!
0&!
0,
0*
#960000
b111110 !
b101110 !
b100110 !
b100010 !
b100000 !
01!
00!
0/!
0.!
1-!
1.
0t
0=
0M
0A
0f
0^
1#!
0L
0E
15
0b
0K
0?
06
1d
0`
1G
0I
1>
18
0u
1+!
0Y
0N
17
0h
1(!
0q
1_
1b
0U
1F
16
0P
1S
0j
1o
0e
0H
1m
1v
1'!
1,!
1Z
1O
1U
1<
1i
1q
1)!
0r
0d
1`
1c
0V
0G
1I
19
1T
0m
1p
1@
0>
1:
08
1n
1%
0w
1*!
0[
1V
0Z
1r
0v
0'!
1e
1a
1H
1J
0n
1~
0i
0q
1k
1m
0O
0U
1Q
1y
1,
0~
1[
1w
0*!
0c
0a
0@
1>
0k
0m
0J
0:
09
18
0Q
1}
0y
1"!
1j
0o
0r
1l
1n
1P
0S
0V
1R
1+
0%
0"!
1~
0j
1o
1m
1i
1q
0l
0n
1O
1U
0P
1S
0R
0}
0p
0w
1%!
0)!
1z
1y
0T
0[
0<
0+
1(
1)
0&
1"!
0m
1p
1n
0o
1r
1)!
0z
1}
0S
1V
1T
1<
1x
1&!
1v
1'!
1\
1Z
0)
0(
1&
0n
0x
0~
0y
0p
1*!
0v
0'!
0T
0\
0Z
1]
1)
1(
1*
0}
0"!
1x
1~
1w
0%!
0*!
1\
0]
1[
1+
0'
0{
1y
1"!
0x
0~
0&!
1]
0\
0(
0)
0+
1'
1|
1}
1{
0y
0"!
0]
1)
0*
0'
0,!
1*!
1&!
0}
0|
1(
0)
1'
1,!
0*!
0&!
0,
1+
1*
0(
1,
0+
0*
#980000
b100010 !
11!
0.
1t
1=
1u
0+!
1Y
1'!
0,!
1*!
0,
1+
