simulation/qsim/g03_lab1.msim.vcd
$comment
	File created using the following command:
		vcd file g03_lab1.msim.vcd -direction
$end
$date
	Wed Oct 04 14:44:46 2017
$end
$version
	ModelSim Version 10.1d
$end
$timescale
	1ps
$end
$scope module g03_lab1_vlg_vec_tst $end
$var reg 6 ! A [5:0] $end
$var wire 1 " floor [2] $end
$var wire 1 # floor [1] $end
$var wire 1 $ floor [0] $end
$var wire 1 % S [3] $end
$var wire 1 & S [2] $end
$var wire 1 ' S [1] $end
$var wire 1 ( S [0] $end
$var wire 1 ) sampler $end
$scope module i1 $end
$var wire 1 * gnd $end
$var wire 1 + vcc $end
$var wire 1 , unknown $end
$var tri1 1 - devclrn $end
$var tri1 1 . devpor $end
$var tri1 1 / devoe $end
$var wire 1 0 inst|inst|inst|inst4~1_combout $end
$var wire 1 1 inst|inst|inst|inst4~0_combout $end
$var wire 1 2 inst|inst|inst|inst4~2_combout $end
$var wire 1 3 inst|inst|inst7|inst2~combout $end
$var wire 1 4 inst|inst|inst7|inst1~combout $end
$var wire 1 5 inst|inst|inst6|inst1~combout $end
$var wire 1 6 inst|inst10|inst4|inst4~combout $end
$var wire 1 7 inst|inst10|inst2|inst1~0_combout $end
$var wire 1 8 inst|inst9|inst3|inst~combout $end
$var wire 1 9 inst|inst10|inst2|inst1~combout $end
$var wire 1 : inst|inst10|inst3|inst1~combout $end
$var wire 1 ; inst|inst10|inst4|inst1~combout $end
$var wire 1 < inst|inst10|inst5|inst~0_combout $end
$var wire 1 = A~combout [5] $end
$var wire 1 > A~combout [4] $end
$var wire 1 ? A~combout [3] $end
$var wire 1 @ A~combout [2] $end
$var wire 1 A A~combout [1] $end
$var wire 1 B A~combout [0] $end
$upscope $end
$upscope $end
$enddefinitions $end
#0
$dumpvars
b0 !
0$
0#
0"
0(
0'
0&
0%
x)
0*
1+
x,
1-
1.
1/
00
01
02
03
04
05
16
07
08
19
1:
1;
0<
0B
0A
0@
0?
0>
0=
$end
#10000
b1 !
1B
0)
1<
1(
#20000
b11 !
b10 !
0B
1A
1)
0<
0;
0(
1'
#30000
b11 !
1B
0)
1<
1(
#40000
b111 !
b101 !
b100 !
0B
0A
1@
1)
0<
1;
0:
0(
0'
1&
#50000
b101 !
1B
0)
1<
1(
#60000
b111 !
b110 !
0B
1A
1)
0<
0;
0(
1'
#70000
b111 !
1B
0)
1<
1(
#80000
b1111 !
b1011 !
b1001 !
b1000 !
0B
0A
0@
1?
1)
0<
1;
11
1:
17
09
0(
0'
0&
1%
#90000
b1001 !
1B
0)
1<
1(
#100000
b1011 !
b1010 !
0B
1A
1)
0<
0;
01
10
0(
1'
#110000
b1011 !
1B
0)
1<
1(
#120000
b1111 !
b1101 !
b1100 !
0B
0A
1@
1)
0<
1;
12
11
00
0:
1<
18
07
15
02
0(
0'
1&
1:
19
0;
06
0<
08
17
05
1(
1$
09
1;
16
0(
0$
0&
0%
1'
0:
1%
0'
1&
#130000
b1101 !
1B
0)
1<
12
0<
18
07
15
1(
1:
19
0(
1$
0&
0%
#140000
b1111 !
b1110 !
0B
1A
1)
1<
02
01
10
0<
08
17
05
12
1(
0:
09
0;
1<
18
07
15
0(
0$
1:
19
1;
1(
1$
1&
1%
1'
0&
0%
0'
#150000
b1111 !
1B
0)
0<
0;
0(
1'
#160000
b11111 !
b10111 !
b10011 !
b10001 !
b10000 !
0B
0A
0@
0?
1>
1)
06
02
00
0:
09
17
08
05
14
19
1<
18
15
04
0$
1#
1&
1%
1:
1(
1$
0#
0%
0&
#170000
b10001 !
1B
0)
0<
1;
16
0:
0(
0'
1&
#180000
b10011 !
b10010 !
0B
1A
1)
1<
1(
#190000
b10011 !
1B
0)
0<
0;
0(
1'
#200000
b10111 !
b10101 !
b10100 !
0B
0A
1@
1)
1<
06
1:
09
0:
19
1(
0&
1%
1&
0%
#210000
b10101 !
1B
0)
0<
1;
16
1:
09
0(
0'
0&
1%
#220000
b10111 !
b10110 !
0B
1A
1)
1<
1(
#230000
b10111 !
1B
0)
0<
0;
0(
1'
#240000
b11111 !
b11011 !
b11001 !
b11000 !
0B
0A
0@
1?
1)
1<
06
10
0:
19
07
1:
09
1(
1&
0%
0&
1%
#250000
b11001 !
1B
0)
0<
1;
16
0:
0(
0'
1&
#260000
b11011 !
b11010 !
0B
1A
1)
1<
11
12
1(
0<
08
05
14
1:
19
0(
0$
1#
0&
0%
#270000
b11011 !
1B
0)
1<
1(
#280000
b11111 !
b11101 !
b11100 !
0B
0A
1@
1)
0<
0;
06
01
0:
1:
0(
1'
1&
0&
#290000
b11101 !
1B
0)
1<
1(
#300000
b11111 !
b11110 !
0B
1A
1)
0<
1;
16
11
0:
0(
0'
1&
#310000
b11111 !
1B
0)
1<
1(
#320000
b111111 !
b101111 !
b100111 !
b100011 !
b100001 !
b100000 !
0B
0A
0@
0?
0>
1=
1)
0;
06
01
00
1:
18
15
09
02
1;
1$
1'
0&
0<
08
17
05
1%
0'
0:
19
0;
0(
0$
1&
0%
1'
#330000
b100001 !
1B
0)
1<
1(
#340000
b100011 !
b100010 !
0B
1A
1)
0<
1;
16
11
1:
09
0(
0'
0&
1%
#350000
b100011 !
1B
0)
1<
1(
#360000
b100111 !
b100101 !
b100100 !
0B
0A
1@
1)
0<
0;
06
01
0:
1:
0(
1'
1&
0&
#370000
b100101 !
1B
0)
1<
1(
#380000
b100111 !
b100110 !
0B
1A
1)
0<
1;
16
11
0:
0(
0'
1&
#390000
b100111 !
1B
0)
1<
12
0<
18
07
15
1(
1:
19
0(
1$
0&
0%
#400000
b101111 !
b101011 !
b101001 !
b101000 !
0B
0A
0@
1?
1)
1<
06
02
10
0:
09
17
1:
19
0<
08
07
05
12
1(
1&
1%
0:
09
0;
1<
18
17
15
0(
0$
0&
0%
1:
19
1;
1(
1$
1&
1%
1'
0&
0%
0'
#410000
b101001 !
1B
0)
0<
0;
0(
1'
#420000
b101011 !
b101010 !
0B
1A
1)
1<
1(
#430000
b101011 !
1B
0)
0<
1;
16
0:
0(
0'
1&
#440000
b101111 !
b101101 !
b101100 !
0B
0A
1@
1)
1<
06
1:
09
0:
19
1(
0&
1%
1&
0%
#450000
b101101 !
1B
0)
0<
0;
0(
1'
#460000
b101111 !
b101110 !
0B
1A
1)
1<
1(
#470000
b101111 !
1B
0)
0<
1;
16
1:
09
0(
0'
0&
1%
#480000
b111111 !
b110111 !
b110011 !
b110001 !
b110000 !
0B
0A
0@
0?
1>
1)
06
01
0:
19
07
05
04
13
1:
09
02
16
0$
0#
1"
1&
0%
1<
15
14
03
0:
0&
1%
06
1(
1$
1#
0"
1&
1:
0&
#490000
b110001 !
1B
0)
0<
0;
0(
1'
#500000
b110011 !
b110010 !
0B
1A
1)
1<
1(
#510000
b110011 !
1B
0)
0<
1;
16
0:
0(
0'
1&
#520000
b110111 !
b110101 !
b110100 !
0B
0A
1@
1)
1<
06
12
1:
19
0:
09
0<
05
04
13
1(
0&
0%
16
0(
0$
0#
1"
1&
1%
1:
19
0&
0%
#530000
b110101 !
1B
0)
1<
1(
#540000
b110111 !
b110110 !
0B
1A
1)
0<
0;
0(
1'
#550000
b110111 !
1B
0)
1<
1(
#560000
b111111 !
b111011 !
b111001 !
b111000 !
0B
0A
0@
1?
1)
0<
1;
02
11
0:
09
17
1<
15
14
03
12
19
0(
0'
1&
1%
06
0<
05
04
13
1(
1$
1#
0"
0%
1:
16
0(
0$
0#
1"
0:
0&
1&
#570000
b111001 !
1B
0)
1<
1(
#580000
b111011 !
b111010 !
0B
1A
1)
0<
0;
0(
1'
#590000
b111011 !
1B
0)
1<
1(
#600000
b111111 !
b111101 !
b111100 !
0B
0A
1@
1)
0<
1;
1:
09
0(
0'
0&
1%
#610000
b111101 !
1B
0)
1<
1(
#620000
b111111 !
b111110 !
0B
1A
1)
0<
0;
0(
1'
#630000
b111111 !
1B
0)
1<
1(
#640000
b11111 !
b1111 !
b111 !
b11 !
b1 !
b0 !
0B
0A
0@
0?
0>
0=
1)
1;
01
00
0:
19
15
03
02
0;
06
1$
0"
0'
1&
0%
0<
08
07
05
1:
1'
0:
09
1;
16
0(
0$
0&
1:
19
1&
1%
0'
0&
0%
#650000
b1 !
1B
0)
1<
1(
#660000
b11 !
b10 !
0B
1A
1)
0<
0;
0(
1'
#670000
b11 !
1B
0)
1<
1(
#680000
b111 !
b101 !
b100 !
0B
0A
1@
1)
0<
1;
0:
0(
0'
1&
#690000
b101 !
1B
0)
1<
1(
#700000
b111 !
b110 !
0B
1A
1)
0<
0;
0(
1'
#710000
b111 !
1B
0)
1<
1(
#720000
b1111 !
b1011 !
b1001 !
b1000 !
0B
0A
0@
1?
1)
0<
1;
11
1:
17
09
0(
0'
0&
1%
#730000
b1001 !
1B
0)
1<
1(
#740000
b1011 !
b1010 !
0B
1A
1)
0<
0;
01
10
0(
1'
#750000
b1011 !
1B
0)
1<
1(
#760000
b1111 !
b1101 !
b1100 !
0B
0A
1@
1)
0<
1;
12
11
00
0:
1<
18
07
15
02
0(
0'
1&
1:
19
0;
06
0<
08
17
05
1(
1$
09
1;
16
0(
0$
0&
0%
1'
0:
1%
0'
1&
#770000
b1101 !
1B
0)
1<
12
0<
18
07
15
1(
1:
19
0(
1$
0&
0%
#780000
b1111 !
b1110 !
0B
1A
1)
1<
02
01
10
0<
08
17
05
12
1(
0:
09
0;
1<
18
07
15
0(
0$
1:
19
1;
1(
1$
1&
1%
1'
0&
0%
0'
#790000
b1111 !
1B
0)
0<
0;
0(
1'
#800000
b11111 !
b10111 !
b10011 !
b10001 !
b10000 !
0B
0A
0@
0?
1>
1)
06
02
00
0:
09
17
08
05
14
19
1<
18
15
04
0$
1#
1&
1%
1:
1(
1$
0#
0%
0&
#810000
b10001 !
1B
0)
0<
1;
16
0:
0(
0'
1&
#820000
b10011 !
b10010 !
0B
1A
1)
1<
1(
#830000
b10011 !
1B
0)
0<
0;
0(
1'
#840000
b10111 !
b10101 !
b10100 !
0B
0A
1@
1)
1<
06
1:
09
0:
19
1(
0&
1%
1&
0%
#850000
b10101 !
1B
0)
0<
1;
16
1:
09
0(
0'
0&
1%
#860000
b10111 !
b10110 !
0B
1A
1)
1<
1(
#870000
b10111 !
1B
0)
0<
0;
0(
1'
#880000
b11111 !
b11011 !
b11001 !
b11000 !
0B
0A
0@
1?
1)
1<
06
10
0:
19
07
1:
09
1(
1&
0%
0&
1%
#890000
b11001 !
1B
0)
0<
1;
16
0:
0(
0'
1&
#900000
b11011 !
b11010 !
0B
1A
1)
1<
11
12
1(
0<
08
05
14
1:
19
0(
0$
1#
0&
0%
#910000
b11011 !
1B
0)
1<
1(
#920000
b11111 !
b11101 !
b11100 !
0B
0A
1@
1)
0<
0;
06
01
0:
1:
0(
1'
1&
0&
#930000
b11101 !
1B
0)
1<
1(
#940000
b11111 !
b11110 !
0B
1A
1)
0<
1;
16
11
0:
0(
0'
1&
#950000
b11111 !
1B
0)
1<
1(
#960000
b111111 !
b101111 !
b100111 !
b100011 !
b100001 !
b100000 !
0B
0A
0@
0?
0>
1=
1)
0;
06
01
00
1:
18
15
09
02
1;
1$
1'
0&
0<
08
17
05
1%
0'
0:
19
0;
0(
0$
1&
0%
1'
#970000
b100001 !
1B
0)
1<
1(
#980000
b100011 !
b100010 !
0B
1A
1)
0<
1;
16
11
1:
09
0(
0'
0&
1%
#990000
b100011 !
1B
0)
1<
1(
