simulation/qsim/g03_lab1.msim.vcd
$comment
	File created using the following command:
		vcd file g03_lab1.msim.vcd -direction
$end
$date
	Sun Oct 01 21:11:40 2017
$end
$version
	ModelSim Version 10.1d
$end
$timescale
	1ps
$end
$scope module g03_lab1_vlg_vec_tst $end
$var reg 6 ! A [5:0] $end
$var wire 1 " S [3] $end
$var wire 1 # S [2] $end
$var wire 1 $ S [1] $end
$var wire 1 % S [0] $end
$var wire 1 & sampler $end
$scope module i1 $end
$var wire 1 ' gnd $end
$var wire 1 ( vcc $end
$var wire 1 ) unknown $end
$var tri1 1 * devclrn $end
$var tri1 1 + devpor $end
$var tri1 1 , devoe $end
$var wire 1 - inst|inst|inst|inst4~1_combout $end
$var wire 1 . inst|inst|inst|inst4~0_combout $end
$var wire 1 / inst|inst|inst|inst4~2_combout $end
$var wire 1 0 inst|inst10|inst3|inst3~combout $end
$var wire 1 1 inst|inst10|inst2|inst1~0_combout $end
$var wire 1 2 inst|inst|inst7|inst1~combout $end
$var wire 1 3 inst|inst10|inst5|inst4~0_combout $end
$var wire 1 4 inst|inst10|inst3|inst2~combout $end
$var wire 1 5 inst|inst10|inst2|inst1~combout $end
$var wire 1 6 inst|inst10|inst3|inst~combout $end
$var wire 1 7 inst|inst10|inst3|inst1~combout $end
$var wire 1 8 inst|inst10|inst4|inst1~combout $end
$var wire 1 9 inst|inst10|inst5|inst~0_combout $end
$var wire 1 : A~combout [5] $end
$var wire 1 ; A~combout [4] $end
$var wire 1 < A~combout [3] $end
$var wire 1 = A~combout [2] $end
$var wire 1 > A~combout [1] $end
$var wire 1 ? A~combout [0] $end
$upscope $end
$upscope $end
$enddefinitions $end
#0
$dumpvars
b0 !
0%
0$
0#
0"
x&
0'
1(
x)
1*
1+
1,
0-
0.
0/
00
01
02
13
14
15
06
17
18
09
0?
0>
0=
0<
0;
0:
$end
#10000
b1 !
1?
0&
19
1%
#20000
b11 !
b10 !
0?
1>
1&
09
08
0%
1$
#30000
b11 !
1?
0&
19
1%
#40000
b111 !
b101 !
b100 !
0?
0>
1=
1&
09
18
16
10
07
04
0%
0$
1#
#50000
b101 !
1?
0&
19
1.
1%
#60000
b111 !
b110 !
0?
1>
1&
09
08
0%
1$
#70000
b111 !
1?
0&
19
1-
1%
#80000
b1111 !
b1011 !
b1001 !
b1000 !
0?
0>
0=
1<
1&
09
0.
0-
18
06
00
11
1/
0/
17
14
19
16
03
01
0%
0$
09
06
13
11
04
08
1%
0#
14
18
0%
1$
05
0$
1"
#90000
b1001 !
1?
0&
19
1%
#100000
b1011 !
b1010 !
0?
1>
1&
09
08
0%
1$
#110000
b1011 !
1?
0&
19
1%
#120000
b1111 !
b1101 !
b1100 !
0?
0>
1=
1&
09
18
16
10
07
04
0%
0$
1#
#130000
b1101 !
1?
0&
19
1.
1/
1%
09
06
01
00
17
14
0%
15
0#
0"
#140000
b1111 !
b1110 !
0?
1>
1&
19
03
08
18
1%
1$
0$
#150000
b1111 !
1?
0&
09
13
1-
08
0%
1$
#160000
b11111 !
b10111 !
b10011 !
b10001 !
b10000 !
0?
0>
0=
0<
1;
1&
0.
0-
18
11
0/
12
05
19
16
03
02
08
07
04
0$
17
15
1%
1"
1$
1#
0#
0"
#170000
b10001 !
1?
0&
09
13
18
07
0%
0$
1#
#180000
b10011 !
b10010 !
0?
1>
1&
19
03
1.
08
18
1%
1$
0$
#190000
b10011 !
1?
0&
09
13
08
0%
1$
#200000
b10111 !
b10101 !
b10100 !
0?
0>
1=
1&
19
03
1-
18
06
08
1%
0$
1$
#210000
b10101 !
1?
0&
09
13
18
17
14
0%
05
0$
0#
1"
#220000
b10111 !
b10110 !
0?
1>
1&
19
03
08
18
1%
1$
0$
#230000
b10111 !
1?
0&
09
13
08
0%
1$
#240000
b11111 !
b11011 !
b11001 !
b11000 !
0?
0>
0=
1<
1&
19
03
0.
0-
18
16
01
1/
08
04
0/
15
09
06
13
12
1%
0$
05
19
16
03
02
07
0%
1$
0"
17
1%
1"
1#
0#
#250000
b11001 !
1?
0&
09
13
18
07
0%
0$
1#
#260000
b11011 !
b11010 !
0?
1>
1&
19
03
1.
08
18
1/
1%
1$
09
06
13
12
0$
17
14
0%
15
0#
0"
#270000
b11011 !
1?
0&
19
1%
#280000
b11111 !
b11101 !
b11100 !
0?
0>
1=
1&
09
1-
08
07
04
16
10
17
0%
1$
1#
0#
#290000
b11101 !
1?
0&
19
1%
#300000
b11111 !
b11110 !
0?
1>
1&
09
18
07
0%
0$
1#
#310000
b11111 !
1?
0&
19
1%
#320000
b111111 !
b101111 !
b100111 !
b100011 !
b100001 !
b100000 !
0?
0>
0=
0<
0;
1:
1&
03
0.
0-
08
17
00
18
0/
05
1$
0#
09
06
13
11
0$
1"
07
08
15
0%
1#
1$
0"
#330000
b100001 !
1?
0&
19
1%
#340000
b100011 !
b100010 !
0?
1>
1&
09
18
17
14
05
0%
0$
0#
1"
#350000
b100011 !
1?
0&
19
1%
#360000
b100111 !
b100101 !
b100100 !
0?
0>
1=
1&
09
08
07
04
16
10
17
0%
1$
1#
0#
#370000
b100101 !
1?
0&
19
1.
1%
#380000
b100111 !
b100110 !
0?
1>
1&
09
18
07
0%
0$
1#
#390000
b100111 !
1?
0&
19
1-
1/
1%
09
06
01
00
17
14
0%
15
0#
0"
#400000
b101111 !
b101011 !
b101001 !
b101000 !
0?
0>
0=
1<
1&
19
03
0.
0-
08
07
04
16
11
18
17
1%
1$
1#
0$
0#
#410000
b101001 !
1?
0&
09
13
08
0%
1$
#420000
b101011 !
b101010 !
0?
1>
1&
19
03
18
07
08
17
1%
0$
1#
1$
0#
#430000
b101011 !
1?
0&
09
13
18
07
0%
0$
1#
#440000
b101111 !
b101101 !
b101100 !
0?
0>
1=
1&
19
03
08
17
06
18
07
1%
1$
0#
0$
1#
#450000
b101101 !
1?
0&
09
13
1.
08
0%
1$
#460000
b101111 !
b101110 !
0?
1>
1&
19
03
18
17
14
08
07
04
05
1%
0$
0#
15
1$
1#
1"
0"
#470000
b101111 !
1?
0&
09
13
1-
18
17
14
0%
05
0$
0#
1"
#480000
b111111 !
b110111 !
b110011 !
b110001 !
b110000 !
0?
0>
0=
0<
1;
1&
0.
0-
08
07
04
16
01
02
0/
18
1$
1#
19
03
12
0$
17
1%
0#
#490000
b110001 !
1?
0&
09
13
08
0%
1$
#500000
b110011 !
b110010 !
0?
1>
1&
19
03
1.
18
07
08
17
1%
0$
1#
1$
0#
#510000
b110011 !
1?
0&
09
13
18
07
0%
0$
1#
#520000
b110111 !
b110101 !
b110100 !
0?
0>
1=
1&
19
03
1-
08
17
06
18
07
1/
1%
1$
0#
09
13
02
0$
1#
17
14
0%
15
0#
0"
#530000
b110101 !
1?
0&
19
1%
#540000
b110111 !
b110110 !
0?
1>
1&
09
08
0%
1$
#550000
b110111 !
1?
0&
19
1%
#560000
b111111 !
b111011 !
b111001 !
b111000 !
0?
0>
0=
1<
1&
09
0.
0-
18
16
11
07
04
05
0%
0$
15
1#
1"
0"
#570000
b111001 !
1?
0&
19
1%
#580000
b111011 !
b111010 !
0?
1>
1&
09
1.
08
0%
1$
#590000
b111011 !
1?
0&
19
1%
#600000
b111111 !
b111101 !
b111100 !
0?
0>
1=
1&
09
1-
18
06
17
14
0%
0$
05
0#
1"
#610000
b111101 !
1?
0&
19
1%
#620000
b111111 !
b111110 !
0?
1>
1&
09
08
0%
1$
#630000
b111111 !
1?
0&
19
1%
#640000
b11111 !
b1111 !
b111 !
b11 !
b1 !
b0 !
0?
0>
0=
0<
0;
0:
1&
03
0.
0-
18
16
0/
08
04
09
06
13
01
0$
14
18
0%
1$
15
0$
0"
#650000
b1 !
1?
0&
19
1%
#660000
b11 !
b10 !
0?
1>
1&
09
08
0%
1$
#670000
b11 !
1?
0&
19
1%
#680000
b111 !
b101 !
b100 !
0?
0>
1=
1&
09
18
16
10
07
04
0%
0$
1#
#690000
b101 !
1?
0&
19
1.
1%
#700000
b111 !
b110 !
0?
1>
1&
09
08
0%
1$
#710000
b111 !
1?
0&
19
1-
1%
#720000
b1111 !
b1011 !
b1001 !
b1000 !
0?
0>
0=
1<
1&
09
0.
0-
18
06
00
11
1/
0/
17
14
19
16
03
01
0%
0$
09
06
13
11
04
08
1%
0#
14
18
0%
1$
05
0$
1"
#730000
b1001 !
1?
0&
19
1%
#740000
b1011 !
b1010 !
0?
1>
1&
09
08
0%
1$
#750000
b1011 !
1?
0&
19
1%
#760000
b1111 !
b1101 !
b1100 !
0?
0>
1=
1&
09
18
16
10
07
04
0%
0$
1#
#770000
b1101 !
1?
0&
19
1.
1/
1%
09
06
01
00
17
14
0%
15
0#
0"
#780000
b1111 !
b1110 !
0?
1>
1&
19
03
08
18
1%
1$
0$
#790000
b1111 !
1?
0&
09
13
1-
08
0%
1$
#800000
b11111 !
b10111 !
b10011 !
b10001 !
b10000 !
0?
0>
0=
0<
1;
1&
0.
0-
18
11
0/
12
05
19
16
03
02
08
07
04
0$
17
15
1%
1"
1$
1#
0#
0"
#810000
b10001 !
1?
0&
09
13
18
07
0%
0$
1#
#820000
b10011 !
b10010 !
0?
1>
1&
19
03
1.
08
18
1%
1$
0$
#830000
b10011 !
1?
0&
09
13
08
0%
1$
#840000
b10111 !
b10101 !
b10100 !
0?
0>
1=
1&
19
03
1-
18
06
08
1%
0$
1$
#850000
b10101 !
1?
0&
09
13
18
17
14
0%
05
0$
0#
1"
#860000
b10111 !
b10110 !
0?
1>
1&
19
03
08
18
1%
1$
0$
#870000
b10111 !
1?
0&
09
13
08
0%
1$
#880000
b11111 !
b11011 !
b11001 !
b11000 !
0?
0>
0=
1<
1&
19
03
0.
0-
18
16
01
1/
08
04
0/
15
09
06
13
12
1%
0$
05
19
16
03
02
07
0%
1$
0"
17
1%
1"
1#
0#
#890000
b11001 !
1?
0&
09
13
18
07
0%
0$
1#
#900000
b11011 !
b11010 !
0?
1>
1&
19
03
1.
08
18
1/
1%
1$
09
06
13
12
0$
17
14
0%
15
0#
0"
#910000
b11011 !
1?
0&
19
1%
#920000
b11111 !
b11101 !
b11100 !
0?
0>
1=
1&
09
1-
08
07
04
16
10
17
0%
1$
1#
0#
#930000
b11101 !
1?
0&
19
1%
#940000
b11111 !
b11110 !
0?
1>
1&
09
18
07
0%
0$
1#
#950000
b11111 !
1?
0&
19
1%
#960000
b111111 !
b101111 !
b100111 !
b100011 !
b100001 !
b100000 !
0?
0>
0=
0<
0;
1:
1&
03
0.
0-
08
17
00
18
0/
05
1$
0#
09
06
13
11
0$
1"
07
08
15
0%
1#
1$
0"
#970000
b100001 !
1?
0&
19
1%
#980000
b100011 !
b100010 !
0?
1>
1&
09
18
17
14
05
0%
0$
0#
1"
#990000
b100011 !
1?
0&
19
1%
