addr/simulation/qsim/g03_addr.msim.vcd
$comment
	File created using the following command:
		vcd file g03_addr.msim.vcd -direction
$end
$date
	Sun Sep 24 13:16:11 2017
$end
$version
	ModelSim Version 10.1d
$end
$timescale
	1ps
$end
$scope module g03_addr_vlg_vec_tst $end
$var reg 6 ! A [5:0] $end
$var reg 6 " B [5:0] $end
$var reg 1 # Cin $end
$var wire 1 $ C0 $end
$var wire 1 % S [5] $end
$var wire 1 & S [4] $end
$var wire 1 ' S [3] $end
$var wire 1 ( S [2] $end
$var wire 1 ) S [1] $end
$var wire 1 * S [0] $end
$var wire 1 + sampler $end
$scope module i1 $end
$var wire 1 , gnd $end
$var wire 1 - vcc $end
$var wire 1 . unknown $end
$var tri1 1 / devclrn $end
$var tri1 1 0 devpor $end
$var tri1 1 1 devoe $end
$var wire 1 2 inst5|inst7~1_cout $end
$var wire 1 3 inst5|inst7~3 $end
$var wire 1 4 inst5|inst7~5 $end
$var wire 1 5 inst5|inst7~7 $end
$var wire 1 6 inst5|inst7~9 $end
$var wire 1 7 inst5|inst7~11 $end
$var wire 1 8 inst5|inst7~13 $end
$var wire 1 9 inst5|inst7~14_combout $end
$var wire 1 : inst5|inst7~12_combout $end
$var wire 1 ; inst5|inst7~10_combout $end
$var wire 1 < inst5|inst7~8_combout $end
$var wire 1 = inst5|inst7~6_combout $end
$var wire 1 > inst5|inst7~4_combout $end
$var wire 1 ? Cin~combout $end
$var wire 1 @ inst5|inst7~2_combout $end
$var wire 1 A B~combout [5] $end
$var wire 1 B B~combout [4] $end
$var wire 1 C B~combout [3] $end
$var wire 1 D B~combout [2] $end
$var wire 1 E B~combout [1] $end
$var wire 1 F B~combout [0] $end
$var wire 1 G A~combout [5] $end
$var wire 1 H A~combout [4] $end
$var wire 1 I A~combout [3] $end
$var wire 1 J A~combout [2] $end
$var wire 1 K A~combout [1] $end
$var wire 1 L A~combout [0] $end
$upscope $end
$upscope $end
$enddefinitions $end
#0
$dumpvars
b0 !
b0 "
1#
0$
1*
0)
0(
0'
0&
0%
x+
0,
1-
x.
1/
10
11
02
13
04
15
06
17
08
09
0:
0;
0<
0=
0>
1?
1@
0F
0E
0D
0C
0B
0A
0L
0K
0J
0I
0H
0G
$end
#10000
b1 !
1L
0+
12
03
0@
1>
0*
1)
#20000
b11 !
b10 !
0L
1K
1+
02
14
0>
13
1@
1=
0)
04
1>
1*
1(
0=
1)
0(
#30000
b11 !
1L
0+
12
03
0@
14
0>
0*
1=
0)
1(
#40000
b111 !
b101 !
b100 !
0L
0K
1J
1+
02
04
1>
05
0=
13
1@
15
1=
1<
1)
0(
0>
0<
1*
1(
1'
0)
0'
#50000
b101 !
1L
0+
12
03
0@
1>
0*
1)
#60000
b111 !
b110 !
0L
1K
1+
02
14
0>
13
1@
05
0=
0)
04
1>
1<
1*
0(
15
1=
1)
1'
0<
1(
0'
#70000
b111 !
1L
0+
12
03
0@
14
0>
0*
05
0=
0)
1<
0(
1'
#80000
b1111 !
b1011 !
b1001 !
b1000 !
0L
0K
0J
1I
1+
02
04
1>
15
1=
16
0<
13
1@
0=
06
1<
1;
1)
1(
0'
0>
0;
1*
0(
1'
1&
0)
0&
#90000
b1001 !
1L
0+
12
03
0@
1>
0*
1)
#100000
b1 "
b1011 !
b1010 !
0L
1K
1F
1+
02
14
0>
1@
0@
1=
0)
1*
0*
1(
#110000
b1011 !
1L
0+
12
1@
1*
#120000
b1111 !
b1101 !
b1100 !
0L
0K
1J
1+
02
04
1>
05
0=
0@
15
1=
16
0<
1)
0(
06
1<
1;
0*
1(
0'
0;
1'
1&
0&
#130000
b1101 !
1L
0+
12
1@
1*
#140000
b1111 !
b1110 !
0L
1K
1+
02
14
0>
0@
05
0=
0)
16
0<
0*
0(
1;
0'
1&
#150000
b1111 !
1L
0+
12
1@
1*
#160000
b11111 !
b10111 !
b10011 !
b10001 !
b10000 !
0L
0K
0J
0I
1H
1+
02
04
1>
15
1=
06
1<
07
0;
0@
0=
0<
17
1;
1:
1)
1(
1'
0&
0:
0*
0(
0'
1&
1%
0%
#170000
b10001 !
1L
0+
12
1@
1*
#180000
b10011 !
b10010 !
0L
1K
1+
02
14
0>
0@
1=
0)
0*
1(
#190000
b10011 !
1L
0+
12
1@
1*
#200000
b11 "
b10 "
b10111 !
b10101 !
b10100 !
0L
0K
1J
0F
1E
1+
02
05
0=
0@
13
1@
1<
0(
0*
04
1>
1*
1'
15
1=
1)
0<
1(
0'
#210000
b10101 !
1L
0+
12
03
0@
14
0>
0*
05
0=
0)
1<
0(
1'
#220000
b10111 !
b10110 !
0L
1K
1+
02
1>
13
1@
1)
0>
1*
0)
#230000
b10111 !
1L
0+
12
03
0@
1>
0*
1)
#240000
b11111 !
b11011 !
b11001 !
b11000 !
0L
0K
0J
1I
1+
02
0>
15
1=
16
0<
13
1@
06
1<
07
0;
0)
1(
0'
04
1>
17
1;
1:
1*
1'
0&
0=
0:
1)
1&
1%
0(
0%
#250000
b11001 !
1L
0+
12
03
0@
14
0>
0*
1=
0)
1(
#260000
b11011 !
b11010 !
0L
1K
1+
02
1>
13
1@
1)
0>
1*
0)
#270000
b11011 !
1L
0+
12
03
0@
1>
0*
1)
#280000
b11111 !
b11101 !
b11100 !
0L
0K
1J
1+
02
0>
05
0=
13
1@
16
0<
0)
0(
04
1>
07
0;
1*
0'
15
1=
1:
1)
0&
06
1<
1(
1%
17
1;
1'
0:
1&
0%
#290000
b11101 !
1L
0+
12
03
0@
14
0>
0*
05
0=
0)
16
0<
0(
07
0;
0'
1:
0&
1%
#300000
b11 "
b11111 !
b11110 !
0L
1K
1F
1+
02
1>
1@
0@
1)
1*
0*
#310000
b11111 !
1L
0+
12
1@
1*
#320000
b111111 !
b101111 !
b100111 !
b100011 !
b100001 !
b100000 !
0L
0K
0J
0I
0H
1G
1+
02
0>
15
1=
06
1<
17
1;
18
0:
0@
0<
0;
08
1:
19
0)
1(
1'
1&
0%
09
0*
0'
0&
1%
1$
0$
#330000
b100001 !
1L
0+
12
1@
1*
#340000
b100011 !
b100010 !
0L
1K
1+
02
1>
0@
1)
0*
#350000
b100011 !
1L
0+
12
1@
1*
#360000
b100111 !
b100101 !
b100100 !
0L
0K
1J
1+
02
0>
05
0=
0@
1<
0)
0(
0*
1'
#370000
b100101 !
1L
0+
12
1@
1*
#380000
b100111 !
b100110 !
0L
1K
1+
02
1>
0@
1)
0*
#390000
b100111 !
1L
0+
12
1@
1*
#400000
b111 "
b101 "
b100 "
b101111 !
b101011 !
b101001 !
b101000 !
0L
0K
0J
1I
0F
0E
1D
1+
02
04
16
0<
0@
13
1@
15
1=
1;
0'
0*
0>
06
1<
1*
1(
1&
0;
0)
1'
0&
#410000
b101001 !
1L
0+
12
03
0@
1>
0*
1)
#420000
b101011 !
b101010 !
0L
1K
1+
02
14
0>
13
1@
05
0=
0)
04
1>
16
0<
1*
0(
15
1=
1;
1)
0'
06
1<
1(
1&
0;
1'
0&
#430000
b101011 !
1L
0+
12
03
0@
14
0>
0*
05
0=
0)
16
0<
0(
1;
0'
1&
#440000
b101111 !
b101101 !
b101100 !
0L
0K
1J
1+
02
04
1>
1=
13
1@
0=
1)
1(
0>
1*
0(
0)
#450000
b101101 !
1L
0+
12
03
0@
1>
0*
1)
#460000
b101111 !
b101110 !
0L
1K
1+
02
14
0>
13
1@
1=
0)
04
1>
1*
1(
0=
1)
0(
#470000
b101111 !
1L
0+
12
03
0@
14
0>
0*
1=
0)
1(
#480000
b111111 !
b110111 !
b110011 !
b110001 !
b110000 !
0L
0K
0J
0I
1H
1+
02
04
1>
0=
06
1<
07
0;
13
1@
15
1=
17
1;
18
0:
1)
0(
1'
0&
0>
0<
08
1:
19
1*
1(
1&
0%
09
0)
0'
1%
1$
0$
#490000
b110001 !
1L
0+
12
03
0@
1>
0*
1)
#500000
b101 "
b110011 !
b110010 !
0L
1K
1F
1+
02
14
0>
1@
0@
05
0=
0)
1*
1<
0*
0(
1'
#510000
b110011 !
1L
0+
12
1@
1*
#520000
b110111 !
b110101 !
b110100 !
0L
0K
1J
1+
02
04
1>
1=
0@
0=
1)
1(
0*
0(
#530000
b110101 !
1L
0+
12
1@
1*
#540000
b110111 !
b110110 !
0L
1K
1+
02
14
0>
0@
1=
0)
0*
1(
#550000
b110111 !
1L
0+
12
1@
1*
#560000
b111111 !
b111011 !
b111001 !
b111000 !
0L
0K
0J
1I
1+
02
04
1>
0=
16
0<
0@
15
1=
07
0;
1)
0(
0'
06
1<
18
0:
0*
1(
0&
17
1;
19
1'
0%
08
1:
1&
1$
09
1%
0$
#570000
b111001 !
1L
0+
12
1@
1*
#580000
b111011 !
b111010 !
0L
1K
1+
02
14
0>
0@
05
0=
0)
16
0<
0*
0(
07
0;
0'
18
0:
0&
19
0%
1$
#590000
b111011 !
1L
0+
12
1@
1*
#600000
b111 "
b110 "
b111111 !
b111101 !
b111100 !
0L
0K
1J
0F
1E
1+
02
1=
0@
13
1@
1(
0*
04
1>
1*
0=
1)
0(
#610000
b111101 !
1L
0+
12
03
0@
14
0>
0*
1=
0)
1(
#620000
b111111 !
b111110 !
0L
1K
1+
02
1>
13
1@
1)
0>
1*
0)
#630000
b111111 !
1L
0+
12
03
0@
1>
0*
1)
#640000
b11111 !
b1111 !
b111 !
b11 !
b1 !
b0 !
0L
0K
0J
0I
0H
0G
1+
02
0>
0=
06
1<
17
1;
08
1:
13
1@
0;
0:
09
0)
0(
1'
1&
1%
04
1>
1*
0&
0%
0$
15
1=
1)
0<
1(
0'
#650000
b1 !
1L
0+
12
03
0@
14
0>
0*
05
0=
0)
1<
0(
1'
#660000
b11 !
b10 !
0L
1K
1+
02
1>
13
1@
1)
0>
1*
0)
#670000
b11 !
1L
0+
12
03
0@
1>
0*
1)
#680000
b111 !
b101 !
b100 !
0L
0K
1J
1+
02
0>
1=
13
1@
0)
1(
04
1>
1*
0=
1)
0(
#690000
b101 !
1L
0+
12
03
0@
14
0>
0*
1=
0)
1(
#700000
b111 "
b111 !
b110 !
0L
1K
1F
1+
02
1>
1@
0@
1)
1*
0*
#710000
b111 !
1L
0+
12
1@
1*
#720000
b1111 !
b1011 !
b1001 !
b1000 !
0L
0K
0J
1I
1+
02
0>
0=
16
0<
0@
1;
0)
0(
0'
0*
1&
#730000
b1001 !
1L
0+
12
1@
1*
#740000
b1011 !
b1010 !
0L
1K
1+
02
1>
0@
1)
0*
#750000
b1011 !
1L
0+
12
1@
1*
#760000
b1111 !
b1101 !
b1100 !
0L
0K
1J
1+
02
0>
1=
0@
0)
1(
0*
#770000
b1101 !
1L
0+
12
1@
1*
#780000
b1111 !
b1110 !
0L
1K
1+
02
1>
0@
1)
0*
#790000
b1111 !
1L
0+
12
1@
1*
#800000
b1111 "
b1011 "
b1001 "
b11111 !
b1000 "
b10111 !
b10011 !
b10001 !
b10000 !
0L
0K
0J
0I
1H
0F
0E
0D
1C
1+
02
04
15
07
0;
0@
13
1@
0=
06
1<
1:
0&
0*
0>
17
1;
1*
0(
1'
1%
0:
0)
1&
0%
#810000
b10001 !
1L
0+
12
03
0@
1>
0*
1)
#820000
b10011 !
b10010 !
0L
1K
1+
02
14
0>
13
1@
1=
0)
04
1>
1*
1(
0=
1)
0(
#830000
b10011 !
1L
0+
12
03
0@
14
0>
0*
1=
0)
1(
#840000
b10111 !
b10101 !
b10100 !
0L
0K
1J
1+
02
04
1>
05
0=
13
1@
15
1=
16
0<
1)
0(
0>
06
1<
07
0;
1*
1(
0'
17
1;
1:
0)
1'
0&
0:
1&
1%
0%
#850000
b10101 !
1L
0+
12
03
0@
1>
0*
1)
#860000
b10111 !
b10110 !
0L
1K
1+
02
14
0>
13
1@
05
0=
0)
04
1>
16
0<
1*
0(
15
1=
07
0;
1)
0'
06
1<
1:
1(
0&
17
1;
1'
1%
0:
1&
0%
#870000
b10111 !
1L
0+
12
03
0@
14
0>
0*
05
0=
0)
16
0<
0(
07
0;
0'
1:
0&
1%
#880000
b11111 !
b11011 !
b11001 !
b11000 !
0L
0K
0J
1I
1+
02
04
1>
15
1=
1<
13
1@
0=
0<
1)
1(
1'
0>
1*
0(
0'
0)
#890000
b11001 !
1L
0+
12
03
0@
1>
0*
1)
#900000
b1001 "
b11011 !
b11010 !
0L
1K
1F
1+
02
14
0>
1@
0@
1=
0)
1*
0*
1(
#910000
b11011 !
1L
0+
12
1@
1*
#920000
b11111 !
b11101 !
b11100 !
0L
0K
1J
1+
02
04
1>
05
0=
0@
15
1=
1<
1)
0(
0<
0*
1(
1'
0'
#930000
b11101 !
1L
0+
12
1@
1*
#940000
b11111 !
b11110 !
0L
1K
1+
02
14
0>
0@
05
0=
0)
1<
0*
0(
1'
#950000
b11111 !
1L
0+
12
1@
1*
#960000
b111111 !
b101111 !
b100111 !
b100011 !
b100001 !
b100000 !
0L
0K
0J
0I
0H
1G
1+
02
04
1>
15
1=
0<
17
1;
18
0:
0@
0=
06
1<
08
1:
19
1)
1(
0'
1&
0%
0;
09
0*
0(
1'
1%
1$
0&
0$
#970000
b100001 !
1L
0+
12
1@
1*
#980000
b100011 !
b100010 !
0L
1K
1+
02
14
0>
0@
1=
0)
0*
1(
#990000
b100011 !
1L
0+
12
1@
1*
