addr/simulation/qsim/g03_addr.msim.vcd
$comment
	File created using the following command:
		vcd file g03_addr.msim.vcd -direction
$end
$date
	Mon Sep 25 17:33:11 2017
$end
$version
	ModelSim Version 10.1d
$end
$timescale
	1ps
$end
$scope module g03_addr_vlg_vec_tst $end
$var reg 6 ! A [5:0] $end
$var reg 6 " B [5:0] $end
$var reg 1 # Cin $end
$var wire 1 $ C0 $end
$var wire 1 % S [5] $end
$var wire 1 & S [4] $end
$var wire 1 ' S [3] $end
$var wire 1 ( S [2] $end
$var wire 1 ) S [1] $end
$var wire 1 * S [0] $end
$var wire 1 + sampler $end
$scope module i1 $end
$var wire 1 , gnd $end
$var wire 1 - vcc $end
$var wire 1 . unknown $end
$var tri1 1 / devclrn $end
$var tri1 1 0 devpor $end
$var tri1 1 1 devoe $end
$var wire 1 2 inst3|inst4~1_combout $end
$var wire 1 3 inst1|inst4~0_combout $end
$var wire 1 4 inst3|inst4~0_combout $end
$var wire 1 5 inst3|inst4~2_combout $end
$var wire 1 6 inst2|inst4~0_combout $end
$var wire 1 7 inst1|inst4~1_combout $end
$var wire 1 8 inst|inst4~0_combout $end
$var wire 1 9 inst|inst1~combout $end
$var wire 1 : inst1|inst1~0_combout $end
$var wire 1 ; inst2|inst1~combout $end
$var wire 1 < inst5|inst4~0_combout $end
$var wire 1 = Cin~combout $end
$var wire 1 > inst5|inst4~1_combout $end
$var wire 1 ? inst4|inst4~0_combout $end
$var wire 1 @ inst3|inst1~0_combout $end
$var wire 1 A inst4|inst1~combout $end
$var wire 1 B inst5|inst1~0_combout $end
$var wire 1 C B~combout [5] $end
$var wire 1 D B~combout [4] $end
$var wire 1 E B~combout [3] $end
$var wire 1 F B~combout [2] $end
$var wire 1 G B~combout [1] $end
$var wire 1 H B~combout [0] $end
$var wire 1 I A~combout [5] $end
$var wire 1 J A~combout [4] $end
$var wire 1 K A~combout [3] $end
$var wire 1 L A~combout [2] $end
$var wire 1 M A~combout [1] $end
$var wire 1 N A~combout [0] $end
$upscope $end
$upscope $end
$enddefinitions $end
#0
$dumpvars
b0 !
b0 "
0#
0$
0*
0)
0(
0'
0&
0%
x+
0,
1-
x.
1/
10
11
02
03
04
05
06
07
08
09
0:
0;
0<
0=
0>
0?
0@
0A
0B
0H
0G
0F
0E
0D
0C
0N
0M
0L
0K
0J
0I
$end
#10000
b1 !
1N
0+
1B
1*
#20000
b11 !
b1 "
b10 !
1H
0N
1M
1+
1A
1)
#30000
b11 !
1N
0+
0B
1<
0A
1?
12
0*
1@
0)
1(
#40000
b111 !
b11 "
b101 !
b10 "
b100 !
0H
1G
0N
0M
1L
1+
0<
0@
15
1A
0?
02
1;
0(
1@
05
1)
1'
0;
1(
0'
#50000
b101 !
1N
0+
1B
1*
#60000
b111 !
b11 "
b110 !
1H
0N
1M
1+
0A
1?
12
0@
15
0)
1;
0(
1'
#70000
b111 !
1N
0+
0B
1<
1A
0*
1)
#80000
b1111 !
b111 "
b1011 !
b101 "
b1001 !
b100 "
b1000 !
0H
0G
1F
0N
0M
0L
1K
1+
0<
0?
02
0;
16
0A
1@
05
1:
0'
1;
06
0)
1(
1&
0:
1'
0&
#90000
b1001 !
1N
0+
1B
1*
#100000
b1011 !
b101 "
b1010 !
1H
0N
1M
1+
1A
1)
#110000
b1011 !
1N
0+
0B
1<
0A
1?
12
0*
0@
15
0)
0;
16
0(
1:
0'
1&
#120000
b1111 !
b111 "
b1101 !
b110 "
b1100 !
0H
1G
0N
0M
1L
1+
0<
1@
14
1A
0?
02
1(
0@
05
1)
0(
#130000
b1101 !
1N
0+
1B
1*
#140000
b1111 !
b111 "
b1110 !
1H
0N
1M
1+
0A
1?
12
1@
15
0)
1(
#150000
b1111 !
1N
0+
0B
1<
1A
0*
1)
#160000
b11111 !
b1111 "
b10111 !
b1011 "
b10011 !
b1001 "
b10001 !
b1000 "
b10000 !
0H
0G
0F
1E
0N
0M
0L
0K
1J
1+
0<
0?
02
05
04
0:
17
0A
0@
1;
06
19
0&
1:
07
0)
0(
1'
1%
09
1&
0%
#170000
b10001 !
1N
0+
1B
1*
#180000
b10011 !
b1001 "
b10010 !
1H
0N
1M
1+
1A
1)
#190000
b10011 !
1N
0+
0B
1<
0A
1?
12
0*
1@
0)
1(
#200000
b10111 !
b1011 "
b10101 !
b1010 "
b10100 !
0H
1G
0N
0M
1L
1+
0<
0@
15
1A
0?
02
0;
16
0(
1@
05
0:
17
1)
0'
1;
06
19
1(
0&
1:
07
1'
1%
09
1&
0%
#210000
b10101 !
1N
0+
1B
1*
#220000
b10111 !
b1011 "
b10110 !
1H
0N
1M
1+
0A
1?
12
0@
15
0)
0;
16
0(
0:
17
0'
19
0&
1%
#230000
b10111 !
1N
0+
0B
1<
1A
0*
1)
#240000
b11111 !
b1111 "
b11011 !
b1101 "
b11001 !
b1100 "
b11000 !
0H
0G
1F
0N
0M
0L
1K
1+
0<
0?
02
1;
0A
1@
05
1'
0;
0)
1(
0'
#250000
b11001 !
1N
0+
1B
1*
#260000
b11011 !
b1101 "
b11010 !
1H
0N
1M
1+
1A
1)
#270000
b11011 !
1N
0+
0B
1<
0A
1?
12
0*
0@
15
0)
1;
0(
1'
#280000
b11111 !
b1111 "
b11101 !
b1110 "
b11100 !
0H
1G
0N
0M
1L
1+
0<
1@
14
1A
0?
02
1(
0@
05
1)
0(
#290000
b11101 !
1N
0+
1B
1*
#300000
b11111 !
b1111 "
b11110 !
1H
0N
1M
1+
0A
1?
12
1@
15
0)
1(
#310000
b11111 !
1N
0+
0B
1<
1A
0*
1)
#320000
b111111 !
b11111 "
b101111 !
b10111 "
b100111 !
b10011 "
b100011 !
b10001 "
b100001 !
b10000 "
b100000 !
0H
0G
0F
0E
1D
0N
0M
0L
0K
0J
1I
1+
0<
0?
02
05
04
06
09
18
0A
0@
0;
1:
07
0%
1$
19
08
0)
0(
0'
1&
1%
0$
#330000
b100001 !
1N
0+
1B
1*
#340000
b100011 !
b10001 "
b100010 !
1H
0N
1M
1+
1A
1)
#350000
b100011 !
1N
0+
0B
1<
0A
1?
12
0*
1@
0)
1(
#360000
b100111 !
b10011 "
b100101 !
b10010 "
b100100 !
0H
1G
0N
0M
1L
1+
0<
0@
15
1A
0?
02
1;
0(
1@
05
1)
1'
0;
1(
0'
#370000
b100101 !
1N
0+
1B
1*
#380000
b100111 !
b10011 "
b100110 !
1H
0N
1M
1+
0A
1?
12
0@
15
0)
1;
0(
1'
#390000
b100111 !
1N
0+
0B
1<
1A
0*
1)
#400000
b101111 !
b10111 "
b101011 !
b10101 "
b101001 !
b10100 "
b101000 !
0H
0G
1F
0N
0M
0L
1K
1+
0<
0?
02
0;
16
0A
1@
05
0:
17
0'
1;
06
09
18
0)
1(
0&
1:
07
1'
0%
1$
19
08
1&
1%
0$
#410000
b101001 !
1N
0+
1B
1*
#420000
b101011 !
b10101 "
b101010 !
1H
0N
1M
1+
1A
1)
#430000
b101011 !
1N
0+
0B
1<
0A
1?
12
0*
0@
15
0)
0;
16
0(
0:
17
0'
09
18
0&
0%
1$
#440000
b101111 !
b10111 "
b101101 !
b10110 "
b101100 !
0H
1G
0N
0M
1L
1+
0<
1@
14
1A
0?
02
1(
0@
05
1)
0(
#450000
b101101 !
1N
0+
1B
1*
#460000
b101111 !
b10111 "
b101110 !
1H
0N
1M
1+
0A
1?
12
1@
15
0)
1(
#470000
b101111 !
1N
0+
0B
1<
1A
0*
1)
#480000
b111111 !
b11111 "
b110111 !
b11011 "
b110011 !
b11001 "
b110001 !
b11000 "
b110000 !
0H
0G
0F
1E
0N
0M
0L
0K
1J
1+
0<
0?
02
05
04
1:
13
0A
0@
1;
06
1&
0:
07
0)
0(
1'
0&
#490000
b110001 !
1N
0+
1B
1*
#500000
b110011 !
b11001 "
b110010 !
1H
0N
1M
1+
1A
1)
#510000
b110011 !
1N
0+
0B
1<
0A
1?
12
0*
1@
0)
1(
#520000
b110111 !
b11011 "
b110101 !
b11010 "
b110100 !
0H
1G
0N
0M
1L
1+
0<
0@
15
1A
0?
02
0;
16
0(
1@
05
1:
17
1)
0'
1;
06
1(
1&
0:
07
1'
0&
#530000
b110101 !
1N
0+
1B
1*
#540000
b110111 !
b11011 "
b110110 !
1H
0N
1M
1+
0A
1?
12
0@
15
0)
0;
16
0(
1:
17
0'
1&
#550000
b110111 !
1N
0+
0B
1<
1A
0*
1)
#560000
b111111 !
b11111 "
b111011 !
b11101 "
b111001 !
b11100 "
b111000 !
0H
0G
1F
0N
0M
0L
1K
1+
0<
0?
02
1;
0A
1@
05
1'
0;
0)
1(
0'
#570000
b111001 !
1N
0+
1B
1*
#580000
b111011 !
b11101 "
b111010 !
1H
0N
1M
1+
1A
1)
#590000
b111011 !
1N
0+
0B
1<
0A
1?
12
0*
0@
15
0)
1;
0(
1'
#600000
b111111 !
b11111 "
b111101 !
b11110 "
b111100 !
0H
1G
0N
0M
1L
1+
0<
1@
14
1A
0?
02
1(
0@
05
1)
0(
#610000
b111101 !
1N
0+
1B
1*
#620000
b111111 !
b11111 "
b111110 !
1H
0N
1M
1+
0A
1?
12
1@
15
0)
1(
#630000
b111111 !
1N
0+
0B
1<
1A
0*
1)
#640000
b111111 "
b11111 !
b101111 "
b1111 !
b100111 "
b111 !
b100011 "
b11 !
b100001 "
b1 !
b100000 "
b0 !
0N
0M
0L
0K
0J
0I
0H
0G
0F
0E
0D
1C
1+
0<
0?
02
05
04
06
07
03
0A
0@
0;
0:
19
08
0)
0(
0'
0&
1%
0$
#650000
b1 !
1N
0+
1B
1*
#660000
b11 !
b100001 "
b10 !
1H
0N
1M
1+
1A
1)
#670000
b11 !
1N
0+
0B
1<
0A
1?
12
0*
1@
0)
1(
#680000
b111 !
b100011 "
b101 !
b100010 "
b100 !
0H
1G
0N
0M
1L
1+
0<
0@
15
1A
0?
02
1;
0(
1@
05
1)
1'
0;
1(
0'
#690000
b101 !
1N
0+
1B
1*
#700000
b111 !
b100011 "
b110 !
1H
0N
1M
1+
0A
1?
12
0@
15
0)
1;
0(
1'
#710000
b111 !
1N
0+
0B
1<
1A
0*
1)
#720000
b1111 !
b100111 "
b1011 !
b100101 "
b1001 !
b100100 "
b1000 !
0H
0G
1F
0N
0M
0L
1K
1+
0<
0?
02
0;
16
0A
1@
05
1:
0'
1;
06
0)
1(
1&
0:
1'
0&
#730000
b1001 !
1N
0+
1B
1*
#740000
b1011 !
b100101 "
b1010 !
1H
0N
1M
1+
1A
1)
#750000
b1011 !
1N
0+
0B
1<
0A
1?
12
0*
0@
15
0)
0;
16
0(
1:
0'
1&
#760000
b1111 !
b100111 "
b1101 !
b100110 "
b1100 !
0H
1G
0N
0M
1L
1+
0<
1@
14
1A
0?
02
1(
0@
05
1)
0(
#770000
b1101 !
1N
0+
1B
1*
#780000
b1111 !
b100111 "
b1110 !
1H
0N
1M
1+
0A
1?
12
1@
15
0)
1(
#790000
b1111 !
1N
0+
0B
1<
1A
0*
1)
#800000
b11111 !
b101111 "
b10111 !
b101011 "
b10011 !
b101001 "
b10001 !
b101000 "
b10000 !
0H
0G
0F
1E
0N
0M
0L
0K
1J
1+
0<
0?
02
05
04
0:
17
0A
0@
1;
06
09
18
0&
1:
07
0)
0(
1'
0%
1$
19
08
1&
1%
0$
#810000
b10001 !
1N
0+
1B
1*
#820000
b10011 !
b101001 "
b10010 !
1H
0N
1M
1+
1A
1)
#830000
b10011 !
1N
0+
0B
1<
0A
1?
12
0*
1@
0)
1(
#840000
b10111 !
b101011 "
b10101 !
b101010 "
b10100 !
0H
1G
0N
0M
1L
1+
0<
0@
15
1A
0?
02
0;
16
0(
1@
05
0:
17
1)
0'
1;
06
09
18
1(
0&
1:
07
1'
0%
1$
19
08
1&
1%
0$
#850000
b10101 !
1N
0+
1B
1*
#860000
b10111 !
b101011 "
b10110 !
1H
0N
1M
1+
0A
1?
12
0@
15
0)
0;
16
0(
0:
17
0'
09
18
0&
0%
1$
#870000
b10111 !
1N
0+
0B
1<
1A
0*
1)
#880000
b11111 !
b101111 "
b11011 !
b101101 "
b11001 !
b101100 "
b11000 !
0H
0G
1F
0N
0M
0L
1K
1+
0<
0?
02
1;
0A
1@
05
1'
0;
0)
1(
0'
#890000
b11001 !
1N
0+
1B
1*
#900000
b11011 !
b101101 "
b11010 !
1H
0N
1M
1+
1A
1)
#910000
b11011 !
1N
0+
0B
1<
0A
1?
12
0*
0@
15
0)
1;
0(
1'
#920000
b11111 !
b101111 "
b11101 !
b101110 "
b11100 !
0H
1G
0N
0M
1L
1+
0<
1@
14
1A
0?
02
1(
0@
05
1)
0(
#930000
b11101 !
1N
0+
1B
1*
#940000
b11111 !
b101111 "
b11110 !
1H
0N
1M
1+
0A
1?
12
1@
15
0)
1(
#950000
b11111 !
1N
0+
0B
1<
1A
0*
1)
#960000
b111111 !
b111111 "
b101111 !
b110111 "
b100111 !
b110011 "
b100011 !
b110001 "
b100001 !
b110000 "
b100000 !
0H
0G
0F
0E
1D
0N
0M
0L
0K
0J
1I
1+
0<
0?
02
05
04
06
19
0A
0@
0;
1:
07
1%
09
0)
0(
0'
1&
0%
#970000
b100001 !
1N
0+
1B
1*
#980000
b100011 !
b110001 "
b100010 !
1H
0N
1M
1+
1A
1)
#990000
b100011 !
1N
0+
0B
1<
0A
1?
12
0*
1@
0)
1(
