Lab4/simulation/qsim/g03_lab4.msim.vcd
$comment
	File created using the following command:
		vcd file g03_lab4.msim.vcd -direction
$end
$date
	Tue Nov 21 15:44:35 2017
$end
$version
	ModelSim Version 10.1d
$end
$timescale
	1ps
$end
$scope module g03_lab4_vlg_vec_tst $end
$var reg 1 ! clk $end
$var reg 1 " rand_lt_num $end
$var reg 1 # request_deal $end
$var reg 1 $ reset $end
$var wire 1 % rand_enable $end
$var wire 1 & stack_enable $end
$var wire 1 ' sampler $end
$scope module i1 $end
$var wire 1 ( gnd $end
$var wire 1 ) vcc $end
$var wire 1 * unknown $end
$var tri1 1 + devclrn $end
$var tri1 1 , devpor $end
$var tri1 1 - devoe $end
$var wire 1 . request_deal~combout $end
$var wire 1 / clk~combout $end
$var wire 1 0 clk~clkctrl_outclk $end
$var wire 1 1 rand_lt_num~combout $end
$var wire 1 2 inst|dealer:state[1]~0_combout $end
$var wire 1 3 reset~combout $end
$var wire 1 4 reset~clkctrl_outclk $end
$var wire 1 5 inst|dealer:state[1]~regout $end
$var wire 1 6 inst|dealer:state[0]~0_combout $end
$var wire 1 7 inst|dealer:state[0]~regout $end
$var wire 1 8 inst|Mux0~0_combout $end
$var wire 1 9 inst|stack_enable~regout $end
$var wire 1 : inst|Mux1~0_combout $end
$var wire 1 ; inst|rand_enable~regout $end
$upscope $end
$upscope $end
$enddefinitions $end
#0
$dumpvars
0!
0"
1#
0$
0%
0&
x'
0(
1)
x*
1+
1,
1-
1.
0/
00
01
02
03
04
05
06
07
08
09
0:
0;
$end
#25000
1!
1/
10
0'
#50000
0#
0!
0.
0/
00
1'
16
#75000
1!
1/
10
0'
17
#90000
1#
1.
1'
06
12
#100000
0!
0/
00
0'
#125000
1!
1/
10
1'
07
15
1:
#140000
0#
0.
0'
#150000
0!
0/
00
1'
#175000
1!
1/
10
0'
1;
1%
#200000
0!
0/
00
1'
#225000
1!
1/
10
0'
#240000
1$
13
14
1'
05
0:
16
02
#250000
0!
0/
00
0'
#260000
0$
03
04
1'
#275000
1!
1/
10
0'
0;
17
0%
#300000
0!
0/
00
1'
#325000
1!
1/
10
0'
#350000
0!
0/
00
1'
#375000
1!
1/
10
0'
#400000
0!
0/
00
1'
#425000
1!
1/
10
0'
#450000
0!
0/
00
1'
#475000
1!
1/
10
0'
#500000
0!
0/
00
1'
#525000
1!
1/
10
0'
#550000
0!
0/
00
1'
#575000
1!
1/
10
0'
#600000
0!
0/
00
1'
#625000
1!
1/
10
0'
#650000
0!
0/
00
1'
#675000
1!
1/
10
0'
#700000
0!
0/
00
1'
#725000
1!
1/
10
0'
#750000
0!
0/
00
1'
#775000
1!
1/
10
0'
#800000
0!
0/
00
1'
#825000
1!
1/
10
0'
#850000
0!
0/
00
1'
#875000
1!
1/
10
0'
#900000
0!
0/
00
1'
#925000
1!
1/
10
0'
#950000
0!
0/
00
1'
#975000
1!
1/
10
0'
